module ai.camelcase.link

go 1.18

replace github.com/web3-storage/go-w3s-client => github.com/3456091/go-w3s-client v0.0.7-0.20220629164205-7c62171eee45

require (
	github.com/bitfield/script v0.20.2
	github.com/dsnet/golib/memfile v1.0.0
	github.com/google/go-cmp v0.5.8
	github.com/hashicorp/go-multierror v1.1.1
	github.com/ipfs/go-cid v0.1.0
	github.com/ipfs/go-pinning-service-http-client v0.1.0
	github.com/joho/godotenv v1.4.0
	github.com/magefile/mage v1.13.0
	github.com/pantheon-systems/autotag v1.3.23
	github.com/web3-storage/go-w3s-client v0.0.6
)

require (
	bitbucket.org/creachadair/shell v0.0.7 // indirect
	github.com/gogs/git-module v1.6.0 // indirect
	github.com/hashicorp/errwrap v1.0.0 // indirect
	github.com/hashicorp/go-version v1.5.0 // indirect
	github.com/itchyny/gojq v0.12.7 // indirect
	github.com/itchyny/timefmt-go v0.1.3 // indirect
	github.com/libp2p/go-flow-metrics v0.0.3 // indirect
	github.com/mcuadros/go-version v0.0.0-20190830083331-035f6764e8d2 // indirect
	github.com/mitchellh/go-homedir v1.1.0 // indirect
	github.com/whyrusleeping/tar-utils v0.0.0-20180509141711-8c6c8ba81d5c // indirect
)

require (
	github.com/Stebalien/go-bitfield v0.0.1 // indirect
	github.com/alanshaw/go-carbites v0.5.0
	github.com/alecthomas/units v0.0.0-20210927113745-59d0afb8317a // indirect
	github.com/btcsuite/btcd v0.22.0-beta // indirect
	github.com/crackcomm/go-gitignore v0.0.0-20170627025303-887ab5e44cc3 // indirect
	github.com/davidlazar/go-crypto v0.0.0-20200604182044-b73af7476f6c // indirect
	github.com/dnaeon/go-vcr/v2 v2.0.1
	github.com/dzhu/go-git-annex-external v0.0.0-20201206053017-4cd60ff30bc1
	github.com/filecoin-project/go-address v0.0.6 // indirect
	github.com/gogo/protobuf v1.3.2 // indirect
	github.com/golang/protobuf v1.5.2 // indirect
	github.com/google/uuid v1.3.0 // indirect
	github.com/gorilla/websocket v1.4.2 // indirect
	github.com/hashicorp/go-cleanhttp v0.5.1 // indirect
	github.com/hashicorp/go-retryablehttp v0.7.0
	github.com/hashicorp/golang-lru v0.5.4 // indirect
	github.com/ipfs/bbloom v0.0.4 // indirect
	github.com/ipfs/go-bitfield v1.0.0 // indirect
	github.com/ipfs/go-block-format v0.0.3
	github.com/ipfs/go-blockservice v0.2.1
	github.com/ipfs/go-datastore v0.5.1
	github.com/ipfs/go-fetcher v1.6.1 // indirect
	github.com/ipfs/go-ipfs-api v0.3.0
	github.com/ipfs/go-ipfs-blockstore v1.1.2
	github.com/ipfs/go-ipfs-chunker v0.0.5 // indirect
	github.com/ipfs/go-ipfs-ds-help v1.1.0 // indirect
	github.com/ipfs/go-ipfs-exchange-interface v0.1.0 // indirect
	github.com/ipfs/go-ipfs-files v0.0.9 // indirect
	github.com/ipfs/go-ipfs-posinfo v0.0.1 // indirect
	github.com/ipfs/go-ipfs-util v0.0.2 // indirect
	github.com/ipfs/go-ipld-cbor v0.0.6 // indirect
	github.com/ipfs/go-ipld-format v0.2.0
	github.com/ipfs/go-ipld-legacy v0.1.0 // indirect
	github.com/ipfs/go-log v1.0.5 // indirect
	github.com/ipfs/go-log/v2 v2.3.0 // indirect
	github.com/ipfs/go-merkledag v0.5.1
	github.com/ipfs/go-metrics-interface v0.0.1 // indirect
	github.com/ipfs/go-mfs v0.2.1 // indirect
	github.com/ipfs/go-path v0.2.1 // indirect
	github.com/ipfs/go-unixfs v0.3.1
	github.com/ipfs/go-unixfsnode v1.1.3 // indirect
	github.com/ipfs/go-verifcid v0.0.1 // indirect
	github.com/ipfs/ipfs-cluster v0.14.2 // indirect
	github.com/ipld/go-car v0.3.3
	github.com/ipld/go-car/v2 v2.1.1
	github.com/ipld/go-codec-dagpb v1.3.0 // indirect
	github.com/ipld/go-ipld-prime v0.14.3 // indirect
	github.com/jbenet/go-temp-err-catcher v0.1.0 // indirect
	github.com/jbenet/goprocess v0.1.4 // indirect
	github.com/klauspost/cpuid/v2 v2.0.9 // indirect
	github.com/libp2p/go-buffer-pool v0.0.2 // indirect
	github.com/libp2p/go-libp2p-core v0.11.0 // indirect
	github.com/libp2p/go-libp2p-pnet v0.2.0 // indirect
	github.com/libp2p/go-libp2p-transport-upgrader v0.5.0 // indirect
	github.com/libp2p/go-openssl v0.0.7 // indirect
	github.com/libp2p/go-ws-transport v0.5.0 // indirect
	github.com/mattn/go-isatty v0.0.14 // indirect
	github.com/miekg/dns v1.1.43 // indirect
	github.com/minio/blake2b-simd v0.0.0-20160723061019-3f5f724cb5b1 // indirect
	github.com/minio/sha256-simd v1.0.0 // indirect
	github.com/mr-tron/base58 v1.2.0 // indirect
	github.com/multiformats/go-base32 v0.0.3 // indirect
	github.com/multiformats/go-base36 v0.1.0 // indirect
	github.com/multiformats/go-multiaddr v0.4.1 // indirect
	github.com/multiformats/go-multiaddr-dns v0.3.1 // indirect
	github.com/multiformats/go-multiaddr-fmt v0.1.0 // indirect
	github.com/multiformats/go-multibase v0.0.3 // indirect
	github.com/multiformats/go-multicodec v0.3.1-0.20210902112759-1539a079fd61 // indirect
	github.com/multiformats/go-multihash v0.1.0
	github.com/multiformats/go-varint v0.0.6 // indirect
	github.com/opentracing/opentracing-go v1.2.0 // indirect
	github.com/petar/GoLLRB v0.0.0-20210522233825-ae3b015fd3e9 // indirect
	github.com/pkg/errors v0.9.1 // indirect
	github.com/polydawn/refmt v0.0.0-20201211092308-30ac6d18308e // indirect
	github.com/spacemonkeygo/spacelog v0.0.0-20180420211403-2296661a0572 // indirect
	github.com/spaolacci/murmur3 v1.1.0 // indirect
	github.com/tomnomnom/linkheader v0.0.0-20180905144013-02ca5825eb80 // indirect
	github.com/whyrusleeping/cbor v0.0.0-20171005072247-63513f603b11 // indirect
	github.com/whyrusleeping/cbor-gen v0.0.0-20210303213153-67a261a1d291 // indirect
	github.com/whyrusleeping/chunker v0.0.0-20181014151217-fe64bd25879f // indirect
	go.uber.org/atomic v1.9.0 // indirect
	go.uber.org/multierr v1.7.0 // indirect
	go.uber.org/zap v1.19.0 // indirect
	golang.org/x/crypto v0.0.0-20210813211128-0a44fdfbc16e // indirect
	golang.org/x/exp v0.0.0-20220518171630-0b5c67f07fdf // indirect
	golang.org/x/net v0.0.0-20210813160813-60bc85c4be6d // indirect
	golang.org/x/oauth2 v0.0.0-20210514164344-f6687ab2804c // indirect
	golang.org/x/sync v0.0.0-20210220032951-036812b2e83c
	golang.org/x/sys v0.0.0-20220227234510-4e6760a101f9 // indirect
	golang.org/x/xerrors v0.0.0-20200804184101-5ec99f83aff1 // indirect
	google.golang.org/appengine v1.6.6 // indirect
	google.golang.org/protobuf v1.27.1 // indirect
	gopkg.in/yaml.v2 v2.4.0 // indirect
	lukechampine.com/blake3 v1.1.6 // indirect
)
